371,1083,372,1114
371,1082,372,1114
373,1082,373,1114
375,1082,375,1114
381,1082,380,1114
385,1082,384,1114
388,1082,387,1114
392,1083,391,1114
401,1083,399,1115
405,1083,404,1115
410,1083,409,1115
416,1084,413,1115
426,1084,424,1116
432,1084,430,1116
437,1084,435,1116
443,1084,440,1116
454,1084,452,1116
460,1084,457,1116
466,1084,463,1116
472,1084,469,1116
484,1084,481,1116
490,1084,487,1116
496,1084,494,1116
502,1084,499,1116
515,1084,512,1117
520,1084,518,1117
527,1084,524,1117
533,1085,531,1117
545,1084,543,1117
551,1085,550,1117
557,1085,556,1117
564,1085,563,1117
577,1084,576,1117
584,1084,583,1117
591,1085,589,1117
598,1086,595,1117
611,1084,609,1116
618,1084,615,1116
624,1084,622,1116
631,1083,628,1116
644,1083,641,1115
651,1083,647,1115
657,1082,654,1115
664,1082,660,1115
677,1082,673,1115
684,1082,679,1115
690,1082,686,1115
697,1082,692,1115
709,1082,705,1115
715,1082,710,1115
720,1083,715,1115
724,1083,719,1115
729,1083,724,1115
730,1082,725,1115
732,1082,726,1115
733,1083,726,1115
738,1084,726,1115
740,1085,726,1115
742,1085,727,1115
744,1086,727,1115
748,1089,727,1115
750,1091,727,1115
751,1092,727,1115
753,1094,727,1115
756,1097,726,1115
757,1099,726,1115
758,1101,726,1116
759,1103,726,1116
760,1107,726,1116
761,1110,726,1117
761,1112,727,1117
762,1114,727,1117
762,1119,727,1118
762,1122,726,1118
762,1124,726,1118
761,1126,726,1118
761,1126,726,1119
761,1126,726,1119
761,1126,726,1119
761,1126,726,1119
761,1128,726,1121
761,1130,726,1123
761,1133,726,1126
761,1136,726,1128
760,1143,725,1135
760,1147,725,1139
760,1152,725,1143
759,1156,724,1148
758,1165,724,1156
758,1170,723,1161
758,1175,723,1166
757,1180,722,1171
756,1191,721,1181
756,1196,721,1186
755,1202,720,1191
755,1207,720,1197
754,1219,719,1209
753,1224,718,1214
753,1230,718,1220
753,1236,718,1227
752,1247,717,1238
752,1253,717,1244
752,1259,717,1250
751,1265,716,1256
751,1277,716,1269
750,1283,715,1274
750,1290,715,1280
750,1296,715,1286
750,1309,715,1298
750,1315,715,1306
749,1321,715,1312
750,1327,715,1318
750,1339,715,1331
750,1346,715,1337
750,1354,715,1343
750,1361,715,1349
750,1371,715,1362
751,1377,715,1369
750,1383,715,1375
751,1390,716,1381
751,1404,716,1393
751,1408,716,1399
752,1414,716,1405
751,1424,716,1412
751,1431,716,1425
752,1442,716,1431
752,1448,716,1437
753,1455,717,1443
753,1464,717,1454
753,1468,717,1458
753,1471,717,1461
753,1473,718,1461
754,1476,718,1467
754,1478,718,1467
754,1481,718,1467
753,1483,718,1467
752,1488,717,1469
750,1491,717,1469
749,1493,717,1470
748,1495,718,1470
744,1500,717,1470
742,1501,717,1470
739,1503,717,1470
737,1505,716,1471
733,1507,716,1471
730,1508,716,1472
728,1509,716,1472
726,1510,716,1472
721,1510,715,1472
719,1511,715,1472
716,1511,715,1472
714,1510,714,1472
710,1510,714,1472
709,1510,714,1472
709,1510,714,1472
709,1510,714,1472
710,1510,714,1472
709,1510,713,1472
709,1510,712,1472
706,1510,711,1472
701,1509,706,1472
698,1509,703,1472
695,1509,699,1471
691,1509,696,1471
682,1508,687,1470
678,1507,683,1470
673,1507,678,1469
668,1506,674,1469
658,1506,664,1468
653,1505,659,1468
648,1504,654,1467
643,1503,648,1467
633,1502,638,1466
626,1502,632,1465
620,1502,627,1465
615,1502,621,1464
604,1501,610,1463
599,1499,604,1463
592,1499,599,1462
587,1499,593,1461
575,1498,582,1460
570,1497,576,1460
564,1497,570,1459
559,1497,565,1459
547,1496,554,1458
542,1495,548,1458
536,1495,542,1457
530,1495,536,1457
519,1495,524,1456
513,1494,518,1456
508,1494,512,1456
502,1494,507,1455
490,1493,495,1455
484,1493,490,1455
478,1493,484,1455
472,1493,478,1455
460,1493,466,1454
455,1492,461,1454
449,1493,455,1454
443,1492,449,1454
431,1492,437,1453
425,1492,431,1453
417,1492,426,1453
414,1491,420,1453
402,1491,408,1452
396,1491,402,1452
392,1491,398,1452
389,1490,395,1452
385,1491,391,1452
385,1491,390,1452
385,1490,391,1452
384,1491,391,1452
381,1490,392,1452
380,1489,392,1452
379,1488,393,1453
377,1488,394,1453
374,1486,394,1454
373,1485,395,1454
372,1484,395,1455
370,1482,395,1455
368,1479,396,1455
367,1478,396,1455
366,1476,396,1455
366,1474,397,1456
364,1471,398,1455
364,1469,398,1455
364,1467,398,1455
363,1465,398,1456
363,1461,399,1457
364,1460,398,1458
364,1458,398,1458
364,1457,399,1458
365,1457,399,1458
365,1457,399,1458
365,1457,399,1458
365,1457,399,1458
365,1454,399,1456
365,1452,399,1454
365,1449,399,1452
366,1446,400,1450
367,1439,401,1443
367,1435,401,1439
368,1431,402,1435
369,1427,403,1431
370,1417,404,1421
371,1412,405,1415
371,1407,406,1411
372,1402,406,1405
373,1391,407,1394
374,1385,408,1388
374,1379,409,1382
375,1373,409,1376
376,1361,410,1364
376,1355,411,1358
377,1349,411,1352
377,1343,411,1346
378,1331,412,1334
379,1324,413,1327
379,1318,413,1321
379,1312,413,1315
380,1299,414,1303
380,1293,414,1297
380,1287,414,1290
381,1281,415,1284
382,1269,416,1272
382,1262,416,1265
382,1256,417,1259
382,1250,417,1252
382,1238,417,1240
382,1232,417,1234
383,1226,417,1228
383,1220,417,1222
383,1207,417,1210
383,1201,418,1204
383,1195,418,1198
383,1189,418,1191
383,1177,418,1179
383,1170,418,1173
383,1164,418,1167
383,1158,418,1161
383,1146,418,1149
383,1139,418,1143
383,1133,418,1136
384,1127,418,1130
384,1118,418,1121
385,1115,418,1118
384,1112,418,1115
385,1111,418,1113
385,1109,418,1112
386,1107,418,1112
386,1105,418,1112
388,1101,419,1111
388,1100,419,1111
389,1097,420,1111
390,1094,420,1111
392,1092,420,1111
394,1088,420,1110
396,1087,420,1111
398,1085,420,1111
400,1084,420,1111
404,1082,421,1110
406,1081,421,1110
408,1080,422,1110
410,1080,422,1110
414,1079,423,1110
416,1078,423,1110
418,1078,423,1110
421,1078,424,1110
425,1078,425,1110
427,1078,425,1110
428,1079,425,1110
428,1079,425,1110
428,1079,425,1110
428,1079,425,1110
428,1079,425,1110
429,1079,424,1110
432,1079,424,1111
432,1079,424,1111
432,1080,424,1111
434,1080,423,1111
439,1083,423,1110
441,1084,423,1110
442,1086,423,1110
443,1087,422,1110
446,1090,422,1110
447,1092,421,1110
448,1094,421,1110
449,1095,421,1109
450,1098,421,1109
450,1100,421,1109
451,1102,420,1109
451,1103,420,1109
451,1107,420,1108
451,1109,420,1108
451,1111,419,1108
451,1112,419,1108
451,1114,419,1107
451,1113,419,1107
451,1113,419,1107
451,1113,419,1107
451,1113,419,1108
451,1115,419,1109
451,1117,419,1111
451,1119,419,1113
450,1125,418,1118
450,1129,418,1122
450,1132,418,1125
450,1137,418,1129
449,1145,417,1138
448,1150,417,1142
447,1154,416,1146
448,1158,416,1151
447,1168,415,1160
446,1173,415,1165
446,1178,415,1170
445,1184,414,1176
445,1194,414,1187
445,1200,414,1193
444,1206,413,1198
445,1211,413,1204
444,1223,413,1215
444,1228,413,1221
444,1234,413,1227
444,1240,413,1232
444,1252,412,1244
444,1257,412,1250
444,1264,412,1256
444,1269,412,1261
443,1282,412,1273
443,1288,412,1280
443,1294,411,1285
442,1300,411,1291
442,1312,411,1303
455,1289,411,1310
441,1324,411,1315
441,1330,410,1322
442,1341,410,1333
441,1347,410,1339
442,1353,411,1345
442,1359,410,1351
442,1371,410,1363
441,1377,410,1368
441,1383,410,1374
442,1389,410,1380
442,1400,410,1391
442,1406,410,1397
442,1411,410,1402
441,1417,410,1408
442,1429,411,1418
442,1432,411,1422
442,1435,411,1425
442,1437,411,1427
442,1439,411,1428
442,1439,411,1428
442,1438,411,1428
443,1437,411,1429
443,1434,411,1431
443,1433,411,1432
443,1432,411,1433
443,1430,412,1434
442,1427,413,1436
442,1426,413,1437
442,1425,414,1437
441,1424,415,1438
438,1420,417,1439
438,1419,417,1441
438,1419,419,1441
437,1418,419,1441
435,1416,422,1442
434,1416,423,1442
433,1415,424,1442
432,1414,425,1442
429,1413,427,1442
428,1413,428,1442
427,1413,429,1441
426,1413,430,1441
426,1413,429,1441
426,1413,429,1441
426,1413,429,1441
427,1413,430,1441
430,1413,432,1441
432,1412,434,1441
435,1412,436,1441
439,1412,439,1441
447,1412,446,1441
451,1412,450,1441
456,1412,454,1441
461,1412,459,1441
471,1413,468,1441
476,1413,473,1441
482,1413,479,1442
487,1413,484,1442
499,1414,496,1442
505,1414,501,1443
510,1414,507,1443
516,1415,512,1443
528,1415,524,1444
534,1415,530,1444
540,1416,537,1444
546,1416,543,1445
559,1417,555,1445
565,1417,561,1446
572,1417,567,1446
578,1418,573,1446
590,1418,586,1446
596,1418,592,1447
603,1418,598,1447
610,1419,605,1447
622,1418,617,1447
627,1418,623,1447
634,1418,630,1447
641,1418,636,1447
653,1419,649,1448
661,1419,655,1448
667,1418,661,1448
673,1419,668,1448
685,1420,680,1449
692,1420,687,1449
699,1419,693,1449
704,1420,699,1450
718,1421,712,1450
725,1421,718,1451
730,1421,725,1450
737,1421,732,1451
750,1422,744,1451
756,1422,751,1451
763,1422,757,1451
768,1422,762,1451
778,1422,772,1452
781,1423,775,1452
783,1422,776,1452
784,1422,778,1452
785,1423,779,1452
784,1423,779,1452
783,1422,781,1452
782,1422,781,1452
781,1422,783,1452
780,1422,784,1451
779,1422,785,1451
778,1422,786,1451
776,1423,787,1449
774,1423,788,1449
773,1424,789,1448
772,1425,789,1447
770,1425,791,1446
769,1426,791,1445
768,1427,792,1444
767,1427,792,1443
765,1428,793,1442
764,1430,793,1441
763,1434,793,1440
762,1434,793,1439
761,1438,793,1438
761,1439,793,1437
761,1441,793,1437
761,1442,792,1436
761,1442,792,1437
761,1442,792,1437
761,1442,792,1437
756,1420,792,1437
760,1439,792,1436
759,1437,792,1434
759,1435,792,1432
760,1433,792,1430
760,1426,791,1424
760,1422,791,1420
758,1417,791,1416
758,1412,791,1412
759,1404,791,1403
759,1398,791,1398
757,1392,791,1393
759,1387,791,1387
757,1375,791,1376
758,1370,791,1370
758,1362,791,1364
757,1356,791,1358
757,1345,791,1346
758,1338,791,1339
757,1332,791,1333
757,1325,791,1327
758,1312,791,1314
759,1306,791,1308
758,1299,791,1301
758,1293,790,1295
757,1280,790,1282
758,1275,790,1276
757,1267,790,1270
758,1261,790,1264
759,1249,791,1251
759,1243,791,1245
759,1237,791,1239
759,1229,791,1232
759,1216,791,1219
759,1210,791,1213
759,1203,792,1207
759,1197,792,1201
761,1185,793,1187
762,1178,793,1181
762,1172,793,1174
761,1163,793,1168
761,1152,794,1155
761,1144,794,1148
761,1138,794,1142
762,1133,794,1135
762,1117,794,1122
762,1113,794,1115
763,1106,794,1109
763,1100,794,1103
763,1089,794,1092
763,1084,795,1088
763,1081,794,1085
763,1079,794,1083
763,1077,795,1081
763,1077,795,1079
763,1078,795,1078
763,1078,794,1077
762,1080,794,1075
762,1081,793,1074
763,1083,793,1073
763,1084,793,1072
763,1087,792,1071
763,1088,791,1070
764,1088,791,1070
764,1090,790,1069
765,1092,789,1069
766,1093,789,1068
767,1094,788,1068
770,1097,787,1067
771,1098,785,1067
772,1098,785,1067
774,1099,784,1067
775,1100,783,1067
778,1101,782,1066
779,1101,781,1066
781,1101,780,1066
782,1102,779,1067
783,1102,779,1067
783,1102,779,1067
783,1102,779,1067
783,1102,779,1067
781,1102,778,1067
779,1102,777,1067
777,1102,775,1067
774,1102,773,1067
767,1102,767,1068
763,1102,763,1068
758,1102,760,1068
754,1103,755,1068
744,1102,746,1068
739,1102,742,1068
734,1102,737,1068
729,1102,732,1068
718,1102,721,1067
712,1102,716,1067
706,1101,710,1067
701,1101,704,1067
689,1100,693,1066
683,1100,687,1066
677,1100,681,1065
671,1099,675,1065
659,1099,663,1065
653,1099,657,1064
647,1098,651,1064
641,1098,646,1064
629,1097,633,1063
623,1097,627,1063
617,1097,621,1063
611,1097,615,1062
599,1097,602,1062
592,1097,597,1062
586,1097,590,1062
580,1096,584,1062
568,1096,572,1062
562,1096,566,1062
555,1096,560,1061
549,1096,554,1062
537,1096,542,1061
531,1095,536,1061
525,1095,530,1061
518,1095,524,1061
506,1095,512,1061
500,1095,506,1060
495,1094,500,1060
489,1094,494,1060
477,1093,482,1060
471,1094,476,1060
465,1094,470,1059
459,1094,464,1059
449,1094,454,1059
445,1093,450,1059
443,1094,448,1059
442,1094,446,1059
441,1093,445,1059
442,1093,445,1059
443,1094,444,1059
445,1094,444,1060
448,1093,443,1060
449,1094,442,1060
450,1093,442,1060
452,1093,442,1061
455,1092,441,1061
456,1091,441,1062
459,1090,440,1062
461,1089,439,1063
461,1088,439,1064
463,1087,438,1064
464,1085,438,1065
465,1084,438,1066
467,1081,437,1067
467,1080,437,1068
468,1079,437,1069
469,1077,437,1070
470,1074,438,1071
470,1073,438,1071
470,1071,438,1072
470,1071,438,1072
470,1071,438,1072
470,1072,438,1072
470,1072,438,1072
470,1072,438,1072
470,1077,438,1075
471,1079,439,1077
471,1082,439,1080
471,1086,439,1082
471,1094,439,1089
471,1098,439,1093
471,1103,438,1098
471,1107,438,1102
471,1117,438,1111
470,1123,438,1116
470,1128,438,1121
470,1133,438,1126
470,1144,437,1137
469,1150,437,1143
469,1154,437,1147
469,1159,437,1153
468,1171,436,1164
468,1177,436,1170
468,1183,436,1176
468,1188,436,1181
467,1200,435,1193
467,1205,435,1198
467,1211,435,1204
466,1217,435,1210
466,1229,435,1222
466,1235,434,1227
466,1241,434,1233
466,1247,434,1239
465,1258,434,1251
465,1264,434,1257
465,1271,434,1263
465,1276,434,1269
466,1288,434,1281
465,1295,434,1287
465,1301,434,1292
466,1306,434,1298
465,1318,434,1310
466,1324,434,1316
465,1330,434,1322
465,1336,434,1328
465,1348,434,1340
465,1354,434,1346
465,1360,434,1352
465,1366,434,1358
465,1378,434,1370
465,1384,434,1376
465,1390,434,1382
465,1396,434,1387
467,1403,435,1394
467,1405,435,1396
467,1407,435,1398
467,1407,435,1398
466,1409,435,1397
466,1410,435,1397
466,1412,435,1396
465,1413,435,1395
463,1416,436,1394
462,1417,436,1394
461,1419,436,1393
460,1420,436,1393
457,1422,437,1391
455,1423,437,1391
454,1424,438,1390
452,1425,438,1390
449,1426,439,1389
447,1427,439,1389
445,1427,439,1389
443,1427,440,1389
440,1427,441,1389
438,1427,442,1389
437,1427,442,1389
436,1426,442,1389
436,1426,442,1388
436,1426,442,1389
436,1426,442,1389
436,1426,442,1389
435,1426,441,1389
432,1426,439,1388
430,1426,437,1388
427,1426,434,1388
420,1425,427,1388
416,1425,424,1388
411,1425,420,1387
407,1424,415,1387
398,1423,406,1386
393,1423,401,1385
388,1422,397,1385
382,1422,391,1384
372,1421,381,1383
367,1420,376,1383
361,1420,371,1382
356,1419,365,1382
346,1418,354,1381
340,1418,348,1380
335,1417,343,1380
329,1417,337,1380
318,1416,326,1378
312,1416,321,1378
307,1416,315,1378
302,1416,309,1378
300,1415,309,1378
304,1415,312,1377
308,1415,313,1377
309,1415,314,1377
306,1415,311,1377
303,1415,309,1377
302,1416,309,1378
302,1416,310,1378
302,1416,310,1378
302,1416,310,1378
303,1416,310,1378
303,1416,310,1378
302,1416,310,1378
303,1416,310,1378
302,1416,310,1378
302,1416,310,1378
302,1416,310,1378
303,1416,310,1378
303,1416,309,1378
303,1416,309,1378
302,1416,309,1378
303,1416,309,1378
303,1416,309,1378
303,1416,309,1378
303,1416,310,1378
303,1416,310,1378
303,1416,310,1378
303,1416,309,1378
303,1416,310,1378
302,1416,310,1378
302,1416,311,1379
302,1416,312,1378
301,1416,313,1379
301,1415,314,1379
300,1415,315,1379
300,1414,316,1379
298,1414,318,1381
298,1413,319,1381
298,1413,321,1382
298,1412,321,1382
297,1411,323,1384
297,1411,324,1385
297,1410,324,1385
296,1409,325,1386
294,1406,326,1387
294,1405,327,1387
294,1403,327,1388
293,1402,327,1389
293,1398,328,1389
292,1397,328,1389
292,1395,328,1389
292,1393,328,1389
293,1389,328,1390
293,1388,328,1389
293,1389,329,1389
293,1389,329,1389
293,1389,329,1389
293,1389,328,1389
293,1387,329,1387
293,1385,328,1385
294,1379,329,1380
294,1376,329,1377
294,1372,329,1373
294,1368,329,1369
295,1359,330,1361
295,1354,330,1356
295,1349,330,1351
295,1344,331,1346
296,1334,331,1336
296,1328,332,1331
296,1323,332,1325
297,1317,332,1319
297,1306,332,1308
297,1300,333,1302
298,1294,333,1296
298,1288,333,1291
298,1275,333,1279
299,1269,334,1273
299,1263,334,1267
300,1257,335,1260
300,1245,335,1248
301,1239,336,1242
301,1233,336,1236
301,1226,337,1229
302,1214,337,1217
302,1208,337,1210
302,1202,338,1204
302,1196,338,1198
302,1183,338,1186
302,1177,338,1180
302,1171,337,1173
302,1164,338,1166
302,1151,338,1153
302,1145,338,1147
302,1138,338,1140
302,1131,337,1134
303,1119,338,1121
303,1113,337,1115
303,1107,337,1109
303,1101,337,1103
303,1088,337,1090
303,1082,337,1084
303,1076,337,1078
303,1070,337,1071
303,1058,337,1059
302,1052,337,1053
303,1048,337,1048
302,1044,337,1044
302,1039,337,1040
302,1038,337,1039
302,1037,337,1039
302,1036,337,1039
303,1032,337,1039
304,1030,337,1040
305,1029,337,1040
305,1027,336,1041
308,1022,336,1041
309,1021,336,1042
310,1019,336,1041
312,1018,336,1042
316,1015,336,1043
318,1014,336,1043
319,1013,336,1043
321,1013,336,1043
325,1012,335,1043
327,1012,335,1044
329,1012,335,1044
331,1012,335,1044
335,1012,334,1044
336,1013,334,1045
337,1012,334,1045
336,1013,334,1045
336,1013,334,1045
336,1013,334,1045
337,1013,335,1045
339,1012,337,1045
344,1013,341,1045
347,1013,344,1045
350,1013,348,1045
354,1013,351,1046
363,1014,360,1046
368,1014,364,1046
373,1014,369,1047
378,1015,374,1047
389,1016,385,1048
394,1016,390,1048
400,1016,396,1049
406,1017,402,1049
417,1018,413,1050
423,1018,419,1050
429,1018,425,1051
435,1019,431,1051
447,1019,443,1052
453,1019,449,1052
459,1020,455,1052
465,1020,461,1052
476,1020,473,1053
483,1021,480,1053
489,1021,486,1053
495,1021,492,1053
508,1021,505,1053
514,1021,511,1053
521,1021,518,1054
527,1021,524,1054
540,1021,537,1054
545,1021,543,1054
551,1021,550,1054
558,1021,556,1054
572,1021,569,1054
579,1021,575,1054
585,1021,581,1054
591,1021,587,1054
604,1021,600,1054
610,1021,607,1054
617,1021,613,1054
624,1021,620,1054
637,1021,633,1053
643,1020,640,1054
650,1020,646,1053
656,1020,653,1053
669,1020,666,1053
676,1020,672,1053
682,1019,677,1053
686,1019,682,1052
693,1019,688,1052
695,1019,690,1052
696,1019,691,1052
697,1019,691,1052
700,1020,690,1052
702,1021,690,1052
704,1021,690,1052
706,1022,690,1052
709,1024,690,1053
711,1025,690,1052
712,1026,690,1053
714,1028,690,1053
717,1031,690,1053
718,1033,690,1053
719,1035,690,1053
720,1036,690,1053
722,1040,689,1052
723,1043,689,1052
723,1045,689,1052
723,1047,689,1052
723,1051,688,1051
723,1053,688,1051
723,1055,688,1051
723,1057,688,1051
722,1058,688,1051
722,1057,688,1051
723,1057,688,1051
722,1057,688,1050
722,1058,688,1050
722,1060,688,1050
721,1061,688,1049
721,1063,688,1049
719,1066,688,1048
718,1067,689,1048
716,1069,689,1047
715,1070,689,1047
712,1073,690,1046
711,1074,690,1045
709,1074,690,1045
707,1075,690,1045
704,1076,691,1044
702,1077,691,1044
700,1077,691,1043
698,1077,691,1043
695,1078,692,1043
693,1077,693,1043
691,1077,693,1043
690,1077,693,1043
689,1076,693,1042
689,1077,693,1042
689,1077,693,1042
689,1076,693,1042
688,1077,691,1042
686,1077,689,1042
683,1077,687,1042
680,1077,685,1042
673,1076,678,1041
669,1076,674,1041
665,1075,669,1041
660,1075,665,1041
650,1074,655,1040
644,1073,650,1039
639,1072,645,1039
633,1072,640,1038
623,1071,629,1038
618,1070,624,1037
612,1070,618,1036
607,1070,612,1036
595,1069,601,1035
590,1068,595,1034
583,1068,589,1034
578,1068,584,1034
566,1067,572,1033
560,1067,566,1033
554,1066,560,1033
548,1066,554,1032
537,1065,543,1031
531,1065,537,1031
525,1065,531,1031
519,1064,524,1031
507,1064,512,1030
501,1064,506,1030
495,1064,500,1030
489,1064,495,1030
477,1064,483,1030
471,1063,477,1030
465,1063,470,1029
459,1063,464,1029
447,1063,453,1029
441,1063,447,1028
435,1063,441,1029
429,1063,435,1029
418,1063,424,1029
412,1063,418,1029
406,1062,412,1029
400,1063,406,1029
388,1062,394,1029
383,1062,388,1029
376,1062,382,1029
370,1063,376,1028
360,1062,367,1028
356,1062,363,1029
353,1062,361,1029
351,1062,360,1029
350,1062,358,1028
351,1062,358,1028
352,1062,357,1028
353,1062,356,1028
355,1062,354,1029
356,1062,353,1029
344,1062,353,1029
359,1062,352,1030
362,1062,350,1031
363,1061,350,1032
365,1061,349,1032
366,1060,348,1033
367,1057,347,1034
370,1054,347,1035
372,1054,346,1036
372,1054,346,1037
373,1053,346,1038
374,1052,346,1039
375,1050,346,1040
375,1048,346,1040
376,1045,346,1042
377,1044,347,1043
377,1042,347,1043
377,1042,347,1043
377,1042,347,1043
377,1042,347,1043
377,1042,347,1043
377,1043,347,1043
377,1046,347,1046
377,1049,347,1048
378,1052,347,1050
378,1055,348,1053
378,1063,348,1060
378,1067,348,1064
378,1072,348,1068
378,1077,348,1072
379,1086,348,1081
379,1091,348,1086
378,1097,348,1091
379,1102,348,1096
378,1113,348,1106
378,1119,348,1112
378,1124,347,1117
378,1130,347,1122
377,1141,347,1133
377,1146,347,1139
377,1150,347,1144
377,1156,346,1149
376,1167,346,1160
376,1173,345,1166
376,1178,345,1171
376,1184,345,1177
376,1195,345,1188
375,1200,344,1194
373,1207,344,1200
375,1213,344,1206
373,1223,344,1217
373,1230,344,1223
373,1235,344,1229
373,1241,344,1235
375,1254,345,1247
375,1260,345,1253
375,1266,344,1258
375,1272,344,1264
374,1285,343,1276
374,1290,343,1281
385,1284,343,1287
372,1302,343,1293
372,1313,342,1305
373,1319,342,1311
373,1325,342,1317
373,1331,342,1323
373,1343,342,1335
373,1348,342,1341
372,1355,342,1346
372,1360,341,1352
372,1368,342,1359
372,1371,341,1362
372,1372,342,1363
372,1373,342,1364
373,1371,342,1364
373,1370,342,1365
373,1368,342,1365
373,1367,342,1367
372,1362,343,1367
372,1359,344,1368
371,1358,345,1368
371,1358,345,1368
370,1355,346,1370
370,1354,346,1370
369,1353,347,1371
368,1351,347,1371
366,1349,349,1371
365,1348,349,1372
364,1347,350,1372
363,1380,351,1372
359,1344,352,1372
358,1344,353,1372
357,1343,353,1372
355,1343,354,1372
352,1343,355,1372
352,1342,355,1372
352,1342,355,1372
352,1342,355,1372
352,1342,355,1372
352,1342,355,1372
352,1342,356,1372
354,1342,357,1372
359,1342,361,1371
362,1342,363,1371
365,1341,366,1371
369,1341,370,1370
378,1341,378,1370
382,1341,382,1370
387,1341,386,1370
392,1341,391,1370
402,1341,401,1370
407,1341,407,1370
413,1341,412,1370
419,1341,418,1370
431,1341,429,1370
437,1341,435,1370
443,1341,441,1370
449,1341,447,1370
461,1340,459,1370
468,1341,465,1370
474,1341,472,1370
480,1341,478,1370
493,1341,490,1370
499,1341,496,1371
506,1341,502,1371
512,1341,508,1371
525,1342,492,1339
587,1343,581,1372
593,1344,589,1373
600,1343,595,1373
606,1344,601,1373
619,1344,614,1373
625,1344,620,1373
631,1344,627,1373
638,1344,633,1373
650,1344,645,1374
657,1344,651,1374
663,1344,657,1374
670,1345,664,1374
682,1345,676,1374
688,1345,683,1375
694,1345,689,1375
699,1345,694,1374
707,1345,701,1374
709,1345,703,1374
710,1345,705,1375
710,1345,706,1374
709,1345,708,1374
708,1345,710,1374
707,1344,711,1374
705,1344,712,1373
703,1345,714,1372
702,1345,715,1371
700,1345,716,1371
699,1346,716,1370
697,1347,718,1368
696,1347,718,1367
695,1348,719,1367
693,1347,719,1365
692,1351,720,1363
691,1352,720,1362
691,1353,721,1361
690,1354,721,1360
689,1356,721,1358
689,1358,720,1357
688,1359,720,1356
688,1361,720,1355
688,1362,720,1355
689,1362,720,1355
688,1363,720,1355
688,1359,720,1355
688,1358,720,1354
688,1356,719,1352
688,1353,719,1350
687,1350,719,1347
687,1343,719,1341
687,1338,719,1337
687,1333,719,1333
687,1329,719,1328
687,1318,718,1318
687,1313,718,1313
687,1307,718,1308
687,1301,718,1302
687,1290,718,1291
687,1283,719,1285
687,1277,719,1279
687,1271,719,1273
687,1259,719,1261
687,1253,719,1255
688,1246,720,1249
688,1240,720,1243
689,1227,721,1230
689,1221,721,1224
690,1215,722,1217
690,1208,722,1211
690,1195,723,1198
691,1189,723,1191
691,1182,723,1185
692,1176,724,1178
692,1163,724,1166
692,1157,724,1160
692,1150,724,1153
693,1143,725,1146
694,1132,725,1134
693,1124,725,1127
693,1117,725,1121
694,1111,725,1115
694,1098,726,1102
694,1091,726,1096
694,1085,726,1089
694,1079,726,1082
695,1066,727,1070
695,1059,727,1063
695,1053,728,1057
696,1047,728,1050
696,1034,728,1037
696,1027,728,1031
697,1021,728,1025
697,1014,728,1018
696,1003,728,1007
696,999,728,1003
696,996,728,1000
697,993,728,998
697,992,729,996
697,993,728,995
696,994,728,994
697,994,728,993
696,997,728,991
696,999,727,990
696,1000,727,990
697,1002,727,989
697,1005,725,987
698,1006,725,987
699,1007,724,987
700,1009,723,986
702,1011,722,985
703,1012,721,985
704,1013,721,984
705,1015,720,984
710,1017,719,984
712,1018,718,984
713,1018,717,984
712,1018,716,984
715,1018,715,984
717,1019,714,984
717,1019,714,985
717,1019,714,985
